Order,Family
Alopecosa barbipes,
,Alopecosa barbipes
Acartauchenius scurrilis,
,Acartauchenius scurrilis
Agrocea cuprea,
,Agrocea cuprea
Agroeca brunnea,
,Agroeca brunnea
Agroeca inopina,
,Agroeca inopina
Agroeca lusatica,
,Agroeca lusatica
Agyneta rurestris,
,Agyneta rurestris
