"trap"	"Ind"	"Obs"	"S1"	"S2"	"Jack1ab"	"Jack1abP"	"Jack2ab"	"Jack2abP"	"Chao1"	"Chao1P"
"2"	2	0.583043684710351	0	0.583043684710351	0.583043684710351	0.583043684710351	0	0	0.583043684710351	0.583043684710351
"4"	1	0.583043684710351	0.583043684710351	0	1.1660873694207	2.33217473884141	1.74913105413105	3.49826210826211	Inf	Inf
"9"	9	1.53472798806132	0.95168430335097	0	2.48641229141229	3.44249646730034	3.43809659476326	4.76012583375188	Inf	Inf
"10"	3	1.1660873694207	0.583043684710351	0.583043684710351	1.74913105413105	2.18641381766382	1.74913105413105	2.18641381766382	1.45760921177588	1.82201151471985
"13"	6	1.18307454890788	0.033974358974359	0.566056505223172	1.21704890788224	1.21805256726787	0.684966761633428	0.685531630731708	1.18409410884321	1.18507059151216
"15"	1	0.583043684710351	0.583043684710351	0	1.1660873694207	2.33217473884141	1.74913105413105	3.49826210826211	Inf	Inf
"24"	1	0.583043684710351	0.583043684710351	0	1.1660873694207	2.33217473884141	1.74913105413105	3.49826210826211	Inf	Inf
"27"	1	0.583043684710351	0.583043684710351	0	1.1660873694207	2.33217473884141	1.74913105413105	3.49826210826211	Inf	Inf
"38"	6	1.1660873694207	0	0.583043684710351	1.1660873694207	1.1660873694207	0.583043684710351	0.583043684710351	1.1660873694207	1.1660873694207
"40"	4	0.95168430335097	0	0.737281237281237	0.95168430335097	0.95168430335097	0.214403066069733	0.214403066069733	0.95168430335097	0.95168430335097
"43"	0	0	0	0	NA	NA	NA	NA	NA	NA
"46"	8	0.95168430335097	0.368640618640619	0	1.32032492199159	1.5184326333318	1.68896554063221	1.94238581030524	Inf	Inf
"48"	4	1.1660873694207	0.583043684710351	0	1.74913105413105	2.18641381766382	2.33217473884141	2.91521842355176	Inf	Inf
"58"	3	0.583043684710351	0	0	0.583043684710351	0.583043684710351	0.583043684710351	0.583043684710351	NA	NA
"60"	2	0.583043684710351	0	0.583043684710351	0.583043684710351	0.583043684710351	0	0	0.583043684710351	0.583043684710351
"64"	2	1.1660873694207	1.1660873694207	0	2.33217473884141	4.66434947768281	3.49826210826211	6.99652421652422	Inf	Inf
"73"	8	1.58152285985619	0.652060778727445	0.346418396418396	2.23358363858364	2.6132721257929	2.53922602089269	2.97087087622772	2.19520744409103	2.56837233443109
"74"	4	1.1660873694207	0.583043684710351	0	1.74913105413105	2.18641381766382	2.33217473884141	2.91521842355176	Inf	Inf
"75"	19	1.56068952652286	0.403576516076516	0.00801282051282051	1.96426604259938	2.09561270778966	2.35982973816307	2.51762698140942	11.7240273966187	12.5079903974287
"77"	3	1.18403608736942	0.618941120607787	0.565094966761634	1.80297720797721	2.29565051422036	1.85682336182336	2.36421042181032	1.522995141433	1.9391618286225
"78"	1	0.583043684710351	0.583043684710351	0	1.1660873694207	2.33217473884141	1.74913105413105	3.49826210826211	Inf	Inf
"79"	10	1.69851003934337	0.194978632478632	0.354431216931217	1.89348867182201	1.91844039335468	1.73403608736942	1.75688659934952	1.75214056807106	1.7752296544708
"80"	4	0.95168430335097	0	0.737281237281237	0.95168430335097	0.95168430335097	0.214403066069733	0.214403066069733	0.95168430335097	0.95168430335097
"84"	11	0.973906525573192	0.0444444444444444	0.346418396418396	1.01835097001764	1.02047176112452	0.716377018043685	0.717868926092845	0.976757570238253	0.97879174001815
"86"	5	1.56384377967711	0.980800094966762	0	2.54464387464387	3.54556827248654	3.52544396961064	4.91216174083685	Inf	Inf
"88"	2	1.1660873694207	1.1660873694207	0	2.33217473884141	4.66434947768281	3.49826210826211	6.99652421652422	Inf	Inf
"89"	14	1.61474935558269	0.0889957264957265	0.728306878306878	1.70374508207842	1.70892034812694	1.06443393026726	1.06766723602301	1.62018678832595	1.62510823917332
"91"	2	0.95168430335097	0.737281237281237	0.214403066069733	1.68896554063221	2.70264661932433	2.21184371184371	3.53934511183135	2.21935186242906	3.55135949419066
"94"	1	0.583043684710351	0.583043684710351	0	1.1660873694207	2.33217473884141	1.74913105413105	3.49826210826211	Inf	Inf
"98"	4	0.583043684710351	0	0	0.583043684710351	0.583043684710351	0.583043684710351	0.583043684710351	NA	NA
"105"	1	0.583043684710351	0.583043684710351	0	1.1660873694207	2.33217473884141	1.74913105413105	3.49826210826211	Inf	Inf
"107"	13	1.54327499660833	0.377187627187627	0	1.92046262379596	2.03518129178705	2.29765025098358	2.43490018911633	Inf	Inf
"112"	6	0.653556505223172	0.0705128205128205	0	0.724069325735992	0.732497820853311	0.794582146248813	0.803831442555018	Inf	Inf
"113"	1	0.583043684710351	0.583043684710351	0	1.1660873694207	2.33217473884141	1.74913105413105	3.49826210826211	Inf	Inf
"115"	1	0.583043684710351	0.583043684710351	0	1.1660873694207	2.33217473884141	1.74913105413105	3.49826210826211	Inf	Inf
"119"	3	1.72912155745489	1.70911206077873	0.0200094966761633	3.43823361823362	6.79735277454403	5.12733618233618	10.1366913057316	74.7210634232163	147.722779826001
"120"	2	0.583043684710351	0	0.583043684710351	0.583043684710351	0.583043684710351	0	0	0.583043684710351	0.583043684710351
"122"	3	1.14607787274454	0.563034188034188	0.563034188034188	1.70911206077873	2.12160053352312	1.70911206077873	2.12160053352312	1.42759496676163	1.77214023155181
"123"	6	1.1660873694207	0.583043684710351	0	1.74913105413105	2.18641381766382	2.33217473884141	2.91521842355176	Inf	Inf
"125"	1	0.583043684710351	0.583043684710351	0	1.1660873694207	2.33217473884141	1.74913105413105	3.49826210826211	Inf	Inf
"128"	10	1.55930063763397	0	0.393213268213268	1.55930063763397	1.55930063763397	1.1660873694207	1.1660873694207	1.55930063763397	1.55930063763397
"129"	25	1.94378975962309	0.392074592074592	0.385627798127798	2.33586435169769	2.4308999772546	2.34231114564448	2.43760906173	2.14310434028451	2.23029744354183
"130"	9	1.62543311626645	0.460307285307285	0.378362840862841	2.08574040157373	2.25301028078266	2.16768484601818	2.34152641426076	1.90543259563363	2.0582423508035
"131"	4	1.35798772215439	0.783491045991046	0.36009361009361	2.14147876814543	2.8543156490067	2.56487620404287	3.4186499515494	2.2103469447862	2.94610806704432
"132"	2	0.583043684710351	0	0.583043684710351	0.583043684710351	0.583043684710351	0	0	0.583043684710351	0.583043684710351
"133"	11	1.1660873694207	0	0	1.1660873694207	1.1660873694207	1.1660873694207	1.1660873694207	NA	NA
"135"	2	0.583043684710351	0	0.583043684710351	0.583043684710351	0.583043684710351	0	0	0.583043684710351	0.583043684710351
"137"	5	2.09776217609551	1.30031542531543	0.777437254103921	3.39807760141094	4.7037018893305	3.92095577262244	5.42748260604986	3.18519411763662	4.40902337921621
"139"	10	1.1660873694207	0.583043684710351	0	1.74913105413105	2.18641381766382	2.33217473884141	2.91521842355176	Inf	Inf
"141"	2	0.583043684710351	0	0.583043684710351	0.583043684710351	0.583043684710351	0	0	0.583043684710351	0.583043684710351
"142"	4	0.583043684710351	0	0	0.583043684710351	0.583043684710351	0.583043684710351	0.583043684710351	NA	NA
"143"	2	1.1660873694207	1.1660873694207	0	2.33217473884141	4.66434947768281	3.49826210826211	6.99652421652422	Inf	Inf
"152"	1	0.583043684710351	0.583043684710351	0	1.1660873694207	2.33217473884141	1.74913105413105	3.49826210826211	Inf	Inf
"155"	1	0.583043684710351	0.583043684710351	0	1.1660873694207	2.33217473884141	1.74913105413105	3.49826210826211	Inf	Inf
"160"	1	0.583043684710351	0.583043684710351	0	1.1660873694207	2.33217473884141	1.74913105413105	3.49826210826211	Inf	Inf
"166"	8	1.1660873694207	0	0	1.1660873694207	1.1660873694207	1.1660873694207	1.1660873694207	NA	NA
"168"	4	1.72912155745489	1.14607787274454	0.563034188034188	2.87519943019943	4.13832107868208	3.45824311490978	4.97750529139666	2.89556448251124	4.167632828109
"172"	4	1.1660873694207	0.583043684710351	0	1.74913105413105	2.18641381766382	2.33217473884141	2.91521842355176	Inf	Inf
"175"	1	0.583043684710351	0.583043684710351	0	1.1660873694207	2.33217473884141	1.74913105413105	3.49826210826211	Inf	Inf
"179"	6	1.53472798806132	0.368640618640619	0.583043684710351	1.90336860670194	2.01318481590861	1.68896554063221	1.78641161203416	1.6512680598222	1.74653914818376
"182"	2	0.95168430335097	0.737281237281237	0.214403066069733	1.68896554063221	2.70264661932433	2.21184371184371	3.53934511183135	2.21935186242906	3.55135949419066
"183"	3	0.583043684710351	0	0	0.583043684710351	0.583043684710351	0.583043684710351	0.583043684710351	NA	NA
"184"	3	0.583043684710351	0	0	0.583043684710351	0.583043684710351	0.583043684710351	0.583043684710351	NA	NA
"188"	9	1.61699294532628	0.484025234025234	0.549924026590693	2.10101817935151	2.28927450030625	2.03511938678605	2.21747101621282	1.83000457588335	1.99397742113139
"189"	3	1.18307454890788	0.61701804368471	0.566056505223172	1.80009259259259	2.28972071085805	1.85105413105413	2.35454387081812	1.5193583498355	1.93262629664119
"191"	2	0.980800094966762	0.79551282051282	0.185287274453941	1.77631291547958	2.94487782637375	2.38653846153846	3.95654624583712	2.6885284035225	4.45720323942576
