sp,Guild,moy_size_male,Balooning,Halophily
Acartauchenius_scurrilis,Other_hunters,1.755,0,intolerant
Agroeca_brunnea,Ground_hunters,6.05,0,intolerant
Agroeca_cuprea,Ground_hunters,3.75,0,intolerant
Agroeca_inopina,Ground_hunters,4,0,tolerant
Agroeca_lusatica,Ground_hunters,4.7,0,tolerant
Agyneta_innotabilis,Sheet_web_weavers,2.05,0,intolerant
Alopecosa_accentuata,Ground_hunters,8.25,1,NA
Alopecosa_cuneata,Ground_hunters,6.75,0,intolerant
Alopecosa_farinosa,Ground_hunters,7,0,intolerant
Alopecosa_pulverulenta,Ground_hunters,7,0,tolerant
Amaurobius_erberi,Sheet_web_weavers,6.5,0,NA
Anelosimus_pulchellus,Space_web_weavers,4,0,tolerant
Antistea_elegans,Sheet_web_weavers,2.45,0,tolerant
Arctosa_leopardus,Ground_hunters,6,1,tolerant
Arctosa_perita,Ground_hunters,7,0,tolerant
Arctosa_villica,Ground_hunters,13,0,tolerant
Argenna_patula,Space_web_weavers,2.5,0,tolerant
Argenna_subnigra,Space_web_weavers,2.25,1,tolerant
Asagena_phalerata,Space_web_weavers,4.75,1,intolerant
Atypus_affinis,Sensing_web_weavers,8,1,intolerant
Aulonia_albimana,Ground_hunters,3.8,1,intolerant
Ballus_rufipes,Other_hunters,3.55,0,intolerant
Bathyphantes_gracilis,Sheet_web_weavers,1.75,1,tolerant
Centromerita_bicolor,Sheet_web_weavers,3,1,tolerant
Centromerita_concinna,Sheet_web_weavers,3.75,1,tolerant
Centromerus_prudens,Sheet_web_weavers,2.35,0,tolerant
Cheiracanthium_erraticum,Other_hunters,5.75,0,tolerant
Civizelotes_civicus,Ground_hunters,4.45,0,NA
Clubiona_comta,Other_hunters,4,0,tolerant
Clubiona_phragmitis,Other_hunters,8,0,tolerant
Clubiona_reclusa,Other_hunters,5,0,tolerant
Clubiona_terrestris,Other_hunters,6,0,tolerant
Crustulina_guttata,Space_web_weavers,2.25,1,tolerant
Crustulina_sticta,Space_web_weavers,2.5,0,tolerant
Dictyna_arundinacea,Space_web_weavers,2.5,1,tolerant
Diplostyla_concolor,Sheet_web_weavers,2.75,1,tolerant
Dipoena_erythropus,Space_web_weavers,2.25,0,intolerant
Drassodes_lapidosus,Ground_hunters,9.65,0,tolerant
Drassyllus_praeficus,Ground_hunters,5.85,0,intolerant
Drassyllus_pusillus,Ground_hunters,4.05,0,tolerant
Drassyllus_villicus,Ground_hunters,4.7,0,intolerant
Dysdera_crocata,Specialists,13,0,tolerant
Dysdera_erythrina,Specialists,7,0,tolerant
Dysdera_fuscipes,Specialists,7,0,NA
Enoplognatha_thoracica,Space_web_weavers,3.55,1,tolerant
Entelecara_erythropus,Other_hunters,1.9,1,tolerant
Episinus_truncatus,Space_web_weavers,5,0,intolerant
Eratigena_picta,Sheet_web_weavers,6.75,0,intolerant
Erigone_atra,Other_hunters,2.2,1,tolerant
Erigone_dentipalpis,Other_hunters,2.35,1,tolerant
Ero_furcata,Specialists,2.75,1,tolerant
Euophrys_frontalis,Other_hunters,3.235,0,tolerant
Euophrys_herbigrada,Other_hunters,3.4,0,intolerant
Gnaphosa_lugubris,Ground_hunters,9.1,0,tolerant
Gnaphosa_occidentalis,Ground_hunters,10,0,intolerant
Gonatium_rubens,Other_hunters,2.7,1,tolerant
Hahnia_nava,Sheet_web_weavers,1.75,0,tolerant
Haplodrassus_dalmatensis,Ground_hunters,5,0,tolerant
Haplodrassus_signifer,Ground_hunters,6.05,0,NA
Haplodrassus_umbratilis,Ground_hunters,4.95,0,intolerant
Harpactea_hombergi,Specialists,5,0,tolerant
Heliophanus_auratus,Other_hunters,4.275,0,specialist
Heliophanus_cupreus,Other_hunters,3.8,0,tolerant
Hypsosinga_albovittata,Orb_web_weavers,3.5,1,intolerant
Iberattus_semiglabratus,Other_hunters,5,0,NA
Lasaeola_coracina,Space_web_weavers,2,0,intolerant
Lasaeola_prona,Space_web_weavers,2.4,0,intolerant
Lathys_humilis,Space_web_weavers,2.125,1,tolerant
Mangora_acalypha,Orb_web_weavers,3.25,1,tolerant
Marpissa_nivoyi,Other_hunters,4.1,0,tolerant
Mecopisthes_peusi,Other_hunters,1.3,0,intolerant
Megalepthyphantes_nebulosus,Sheet_web_weavers,4,1,intolerant
Agyneta_rurestris,Sheet_web_weavers,1.95,1,tolerant
Mermessus_trilobatus,Other_hunters,1.85,0,intolerant
Metopobactrus_prominulus,Other_hunters,1.6,0,tolerant
Micaria_albovittata,Ground_hunters,4.25,0,NA
Micaria_formicaria,Ground_hunters,4.85,0,NA
Micaria_pulicaria,Ground_hunters,3.5,1,tolerant
Microlinyphia_pusilla,Sheet_web_weavers,3.5,1,tolerant
Micrommata_ligurina,Other_hunters,8,0,intolerant
Micrommata_virescens,Other_hunters,8.5,0,intolerant
Neon_reticulatus,Other_hunters,2.6,0,tolerant
Neottiura_suaveolens,Space_web_weavers,2.5,0,tolerant
Neriene_clathrata,Sheet_web_weavers,4.2,1,tolerant
Nomisia_exornata,Ground_hunters,4.35,0,tolerant
Oedothorax_fuscus,Other_hunters,2.15,1,tolerant
Oedothorax_retusus,Other_hunters,2.1,1,tolerant
Ostearius_melanopygius,Other_hunters,2.4,1,tolerant
Ozyptila_atomaria,Ambush_hunters,3.5,0,tolerant
Ozyptila_sanctuaria,Ambush_hunters,2.5,1,tolerant
Ozyptila_scabricula,Ambush_hunters,2.5,0,intolerant
Ozyptila_simplex,Ambush_hunters,2.5,1,tolerant
Palliduphantes_ericaeus,Sheet_web_weavers,1.6,1,tolerant
Palliduphantes_insignis,Sheet_web_weavers,2.05,0,intolerant
Palliduphantes_pallidus,Sheet_web_weavers,1.95,1,tolerant
Pardosa_amentata,Ground_hunters,6,1,tolerant
Pardosa_monticola,Ground_hunters,4.5,1,tolerant
Pardosa_nigriceps,Ground_hunters,4.95,1,tolerant
Pardosa_palustris,Ground_hunters,5.5,1,tolerant
Pardosa_prativaga,Ground_hunters,5.85,1,tolerant
Pardosa_proxima,Ground_hunters,5,1,intolerant
Pardosa_pullata,Ground_hunters,4.5,1,tolerant
Pardosa_saltans,Ground_hunters,5.3,0,tolerant
Peponocranium_ludicrum,Other_hunters,1.55,0,tolerant
Phaeocedus_braccatus,Ground_hunters,4.45,0,intolerant
Philodromus_aureolus,Other_hunters,5,1,tolerant
Philodromus_rufus,Other_hunters,4.5,1,intolerant
Phlegra_bresnieri,Other_hunters,5,0,NA
Phlegra_fasciata,Other_hunters,5.85,1,tolerant
Pholcomma_gibbum,Space_web_weavers,1.65,0,tolerant
Phrurolithus_festivus,Ground_hunters,2.55,0,tolerant
Phrurolithus_minimus,Ground_hunters,2.4,0,NA
Phrurolithus_nigrinus,Ground_hunters,2.5,0,intolerant
Pocadicnemis_pumila,Other_hunters,1.9,0,tolerant
Poecilochroa_variana,Ground_hunters,5.4,0,intolerant
Porrhoclubiona_genevensis,Other_hunters,4,0,intolerant
Robertus_arundineti,Space_web_weavers,2.125,1,tolerant
Robertus_lividus,Space_web_weavers,3.25,1,tolerant
Saaristoa_abnormis,Sheet_web_weavers,3.4,0,tolerant
Segestria_senoculata,Sensing_web_weavers,7,0,tolerant
Silometopus_elegans,Other_hunters,1.35,1,tolerant
Stemonyphantes_lineatus,Other_hunters,4,0,tolerant
Styloctetor_compar,Other_hunters,1.95,0,intolerant
Talavera_aequipes,Other_hunters,2.42,1,tolerant
Tenuiphantes_flavipes,Sheet_web_weavers,2.15,1,tolerant
Tenuiphantes_tenuis,Sheet_web_weavers,2.6,1,tolerant
Thanatus_striatus,Other_hunters,3.6,0,tolerant
Tiso_vagans,Other_hunters,1.95,1,tolerant
Trachyzelotes_pedestris,Ground_hunters,5.25,0,tolerant
Trichoncus_saxicola,Other_hunters,2.05,0,intolerant
Trochosa_robusta,Ground_hunters,13.5,0,intolerant
Trochosa_ruricola,Ground_hunters,8.25,0,tolerant
Trochosa_terricola,Ground_hunters,8,1,tolerant
Walckenaeria_acuminata,Other_hunters,2.65,1,tolerant
Walckenaeria_alticeps,Other_hunters,2.35,0,intolerant
Walckenaeria_capito,Other_hunters,2.6,0,intolerant
Walckenaeria_clavicornis,Other_hunters,2.25,0,intolerant
Walckenaeria_dysderoides,Other_hunters,1.85,0,tolerant
Walckenaeria_furcillata,Other_hunters,2.5,0,intolerant
Walckenaeria_monoceros,Other_hunters,2.35,1,tolerant
Walckenaeria_nudipalpis,Other_hunters,2.675,1,tolerant
Xysticus_cristatus,Ambush_hunters,4.8,1,tolerant
Xysticus_erraticus,Ambush_hunters,4.5,0,intolerant
Xysticus_kempeleni,Ambush_hunters,4.15,0,intolerant
Xysticus_kochi,Ambush_hunters,4.7,1,tolerant
Xysticus_lanio,Ambush_hunters,5.2,0,tolerant
Zelotes_atrocaeruleus,Ground_hunters,6.85,0,intolerant
Zelotes_latreillei,Ground_hunters,6,1,tolerant
Zelotes_petrensis,Ground_hunters,5.5,0,intolerant
Zelotes_subterraneus,Ground_hunters,5.8,0,tolerant
Zodarion_italicum,Specialists,2.25,0,tolerant
Zora_armillata,Other_hunters,3.75,0,intolerant
Zora_spinimana,Other_hunters,4.75,1,tolerant
