sp,Guild,mean_size_male,Balooning
Eratigena_picta,Sheet_web_weavers,6.75,0
Amaurobius_erberi,Sheet_web_weavers,6.5,0
Hypsosinga_albovittata,Orb_web_weavers,3.5,1
Mangora_acalypha,Orb_web_weavers,3.25,1
Atypus_affinis,Sensing_web_weavers,8,1
Cheiracanthium_erraticum,Other_hunters,5.75,0
Clubiona_comta,Other_hunters,4,0
Porrhoclubiona_genevensis,Other_hunters,4,0
Clubiona_phragmitis,Other_hunters,8,0
Clubiona_reclusa,Other_hunters,5,0
Clubiona_terrestris,Other_hunters,6,0
Argenna_patula,Space_web_weavers,2.5,0
Argenna_subnigra,Space_web_weavers,2.25,1
Dictyna_arundinacea,Space_web_weavers,2.5,1
Lathys_humilis,Space_web_weavers,2.125,1
Dysdera_crocata,Specialists,13,0
Dysdera_erythrina,Specialists,7,0
Dysdera_fuscipes,Specialists,7,0
Harpactea_hombergi,Specialists,5,0
Civizelotes_civicus,Ground_hunters,4.45,0
Drassodes_lapidosus,Ground_hunters,9.65,0
Drassyllus_praeficus,Ground_hunters,5.85,0
Drassyllus_pusillus,Ground_hunters,4.05,0
Drassyllus_villicus,Ground_hunters,4.7,0
Gnaphosa_lugubris,Ground_hunters,9.1,0
Gnaphosa_occidentalis,Ground_hunters,10,0
Haplodrassus_dalmatensis,Ground_hunters,5,0
Haplodrassus_signifer,Ground_hunters,6.05,0
Haplodrassus_umbratilis,Ground_hunters,4.95,0
Micaria_albovittata,Ground_hunters,4.25,0
Micaria_formicaria,Ground_hunters,4.85,0
Micaria_pulicaria,Ground_hunters,3.5,1
Nomisia_exornata,Ground_hunters,4.35,0
Phaeocedus_braccatus,Ground_hunters,4.45,0
Poecilochroa_variana,Ground_hunters,5.4,0
Trachyzelotes_pedestris,Ground_hunters,5.25,0
Zelotes_atrocaeruleus,Ground_hunters,6.85,0
Zelotes_latreillei,Ground_hunters,6,1
Zelotes_petrensis,Ground_hunters,5.5,0
Zelotes_subterraneus,Ground_hunters,5.8,0
Antistea_elegans,Sheet_web_weavers,2.45,0
Hahnia_nava,Sheet_web_weavers,1.75,0
Meioneta_rurestris,Sheet_web_weavers,1.95,1
Bathyphantes_gracilis,Sheet_web_weavers,1.75,1
Centromerita_bicolor,Sheet_web_weavers,3,1
Centromerita_concinna,Sheet_web_weavers,3.75,1
Centromerus_prudens,Sheet_web_weavers,2.35,0
Diplostyla_concolor,Sheet_web_weavers,2.75,1
Megalepthyphantes_nebulosus,Sheet_web_weavers,4,1
Agyneta_innotabilis,Sheet_web_weavers,2.05,0
Microlinyphia_pusilla,Sheet_web_weavers,3.5,1
Neriene_clathrata,Sheet_web_weavers,4.2,1
Palliduphantes_ericaeus,Sheet_web_weavers,1.6,1
Palliduphantes_insignis,Sheet_web_weavers,2.05,0
Palliduphantes_pallidus,Sheet_web_weavers,1.95,1
Saaristoa_abnormis,Sheet_web_weavers,3.4,0
Tenuiphantes_flavipes,Sheet_web_weavers,2.15,1
Tenuiphantes_tenuis,Sheet_web_weavers,2.6,1
Acartauchenius_scurrilis,Other_hunters,1.755,0
Entelecara_erythropus,Other_hunters,1.9,1
Erigone_atra,Other_hunters,2.2,1
Erigone_dentipalpis,Other_hunters,2.35,1
Gonatium_rubens,Other_hunters,2.7,1
Mecopisthes_peusi,Other_hunters,1.3,0
Mermessus_trilobatus,Other_hunters,1.85,0
Metopobactrus_prominulus,Other_hunters,1.6,0
Oedothorax_fuscus,Other_hunters,2.15,1
Oedothorax_retusus,Other_hunters,2.1,1
Ostearius_melanopygius,Other_hunters,2.4,1
Peponocranium_ludicrum,Other_hunters,1.55,0
Pocadicnemis_pumila,Other_hunters,1.9,0
Silometopus_elegans,Other_hunters,1.35,1
Stemonyphantes_lineatus,Other_hunters,4,0
Styloctetor_compar,Other_hunters,1.95,0
Tiso_vagans,Other_hunters,1.95,1
Trichoncus_saxicola,Other_hunters,2.05,0
Walckenaeria_acuminata,Other_hunters,2.65,1
Walckenaeria_alticeps,Other_hunters,2.35,0
Walckenaeria_capito,Other_hunters,2.6,0
Walckenaeria_clavicornis,Other_hunters,2.25,0
Walckenaeria_dysderoides,Other_hunters,1.85,0
Walckenaeria_furcillata,Other_hunters,2.5,0
Walckenaeria_monoceros,Other_hunters,2.35,1
Walckenaeria_nudipalpis,Other_hunters,2.675,1
Agroeca_brunnea,Ground_hunters,6.05,0
Agroeca_cuprea,Ground_hunters,3.75,0
Agroeca_inopina,Ground_hunters,4,0
Agroeca_lusatica,Ground_hunters,4.7,0
Phrurolithus_festivus,Ground_hunters,2.55,0
Phrurolithus_minimus,Ground_hunters,2.4,0
Phrurolithus_nigrinus,Ground_hunters,2.5,0
Alopecosa_accentuata,Ground_hunters,8.25,1
Alopecosa_cuneata,Ground_hunters,6.75,0
Alopecosa_farinosa,Ground_hunters,7,0
Alopecosa_pulverulenta,Ground_hunters,7,0
Arctosa_leopardus,Ground_hunters,6,1
Arctosa_perita,Ground_hunters,7,0
Arctosa_villica,Ground_hunters,7,0
Aulonia_albimana,Ground_hunters,3.8,1
Pardosa_amentata,Ground_hunters,6,1
Pardosa_monticola,Ground_hunters,4.5,1
Pardosa_nigriceps,Ground_hunters,4.95,1
Pardosa_palustris,Ground_hunters,5.5,1
Pardosa_prativaga,Ground_hunters,5.85,1
Pardosa_proxima,Ground_hunters,5,1
Pardosa_pullata,Ground_hunters,4.5,1
Pardosa_saltans,Ground_hunters,5.3,0
Trochosa_robusta,Ground_hunters,13.5,0
Trochosa_ruricola,Ground_hunters,8.25,0
Trochosa_terricola,Ground_hunters,8,1
Ero_furcata,Specialists,2.75,1
Zora_armillata,Other_hunters,3.75,0
Zora_spinimana,Other_hunters,4.75,1
Philodromus_aureolus,Other_hunters,5,1
Philodromus_rufus,Other_hunters,4.5,1
Thanatus_striatus,Other_hunters,3.6,0
Ballus_rufipes,Other_hunters,3.55,0
Iberattus_semiglabratus,Other_hunters,5,0
Euophrys_frontalis,Other_hunters,3.235,0
Euophrys_herbigrada,Other_hunters,3.4,0
Heliophanus_auratus,Other_hunters,4.275,0
Heliophanus_cupreus,Other_hunters,3.8,0
Marpissa_nivoyi,Other_hunters,4.1,0
Neon_reticulatus,Other_hunters,2.6,0
Phlegra_bresnieri,Other_hunters,5,0
Phlegra_fasciata,Other_hunters,5.85,1
Talavera_aequipes,Other_hunters,2.42,1
Segestria_senoculata,Sensing_web_weavers,7,0
Micrommata_ligurina,Other_hunters,8,0
Micrommata_virescens,Other_hunters,8.5,0
Anelosimus_pulchellus,Space_web_weavers,4,0
Asagena_phalerata,Space_web_weavers,4.75,1
Crustulina_guttata,Space_web_weavers,2.25,1
Crustulina_sticta,Space_web_weavers,2.5,0
Dipoena_erythropus,Space_web_weavers,2.25,0
Lasaeola_prona,Space_web_weavers,2.4,0
Enoplognatha_thoracica,Space_web_weavers,3.55,1
Episinus_truncatus,Space_web_weavers,5,0
Lasaeola_coracina,Space_web_weavers,2,0
Neottiura_suaveolens,Space_web_weavers,2.5,0
Pholcomma_gibbum,Space_web_weavers,1.65,0
Robertus_arundineti,Space_web_weavers,2.125,1
Robertus_lividus,Space_web_weavers,3.25,1
Ozyptila_atomaria,Ambush_hunters,3.5,0
Ozyptila_sanctuaria,Ambush_hunters,2.5,1
Ozyptila_scabricula,Ambush_hunters,2.5,0
Ozyptila_simplex,Ambush_hunters,2.5,1
Xysticus_cristatus,Ambush_hunters,4.8,1
Xysticus_erraticus,Ambush_hunters,4.5,0
Xysticus_kempeleni,Ambush_hunters,4.15,0
Xysticus_kochi,Ambush_hunters,4.7,1
Xysticus_lanio,Ambush_hunters,5.2,0
Zodarion_italicum,Specialists,2.25,0
